<?xml version="1.0" encoding="utf-8"?>
<!-- Generator: Adobe Illustrator 22.0.0, SVG Export Plug-In . SVG Version: 6.00 Build 0)  -->
<svg version="1.1" id="Layer_1" xmlns="http://www.w3.org/2000/svg" xmlns:xlink="http://www.w3.org/1999/xlink" x="0px" y="0px"
	 viewBox="0 0 512 512" style="enable-background:new 0 0 512 512;" xml:space="preserve">
<style type="text/css">
	.st0{fill:#A6A8AB;}
</style>
<path class="st0" d="M256,413.5c-135.6,0-246-71.1-246-158.6S120.4,96.3,256,96.3s246,71.2,246,158.6S391.6,413.5,256,413.5z
	 M256,109.2c-128.5,0-233.1,65.3-233.1,145.7c0,80.3,104.5,145.7,233.1,145.7s233.1-65.3,233.1-145.7S384.5,109.2,256,109.2z"/>
</svg>
