<?xml version="1.0" encoding="utf-8"?>
<!-- Generator: Adobe Illustrator 22.0.0, SVG Export Plug-In . SVG Version: 6.00 Build 0)  -->
<svg version="1.1" id="Layer_1" xmlns="http://www.w3.org/2000/svg" xmlns:xlink="http://www.w3.org/1999/xlink" x="0px" y="0px"
	 viewBox="0 0 512 512" style="enable-background:new 0 0 512 512;" xml:space="preserve">
<style type="text/css">
	.st0{fill:#6E859B;}
	.st1{fill:#B5D151;}
</style>
<g id="Page-1">
	<g id="Clip-2">
	</g>
	<path id="Fill-3" class="st0" d="M496.4,385.5H26.5c-4.4,0-8.1,3.9-8.1,8.7c0,4.8,3.6,8.7,8.1,8.7h469.9c4.4,0,8.1-3.9,8.1-8.7
		S500.9,385.5,496.4,385.5"/>
</g>
<path class="st1" d="M406.1,321.9H116.8c-12.8,0-23.1-10.4-23.1-23.1V154.1c0-12.8,10.4-23.1,23.1-23.1h289.3
	c12.8,0,23.1,10.4,23.1,23.1v144.6C429.3,311.5,418.9,321.9,406.1,321.9z M116.9,142.5c-6.4,0-11.6,5.2-11.6,11.6v144.6
	c0,6.4,5.2,11.6,11.6,11.6h289.3c6.4,0,11.6-5.2,11.6-11.6V154.1c0-6.4-5.2-11.6-11.6-11.6H116.9z"/>
</svg>
