<?xml version="1.0" encoding="UTF-8"?>
<svg width="26px" height="26px" viewBox="0 0 26 26" version="1.1" xmlns="http://www.w3.org/2000/svg" xmlns:xlink="http://www.w3.org/1999/xlink">
    <!-- Generator: Sketch 49 (51002) - http://www.bohemiancoding.com/sketch -->
    <title>calendar</title>
    <desc>Created with Sketch.</desc>
    <defs>
        <polygon id="path-1" points="0 26 26 26 26 0 0 0"></polygon>
    </defs>
    <g id="PRESS" stroke="none" stroke-width="1" fill="none" fill-rule="evenodd">
        <g id="press" transform="translate(-216.000000, -490.000000)">
            <g id="press-content" transform="translate(210.000000, 464.000000)">
                <g id="event">
                    <g id="calendar" transform="translate(6.000000, 26.000000)">
                        <polyline id="Stroke-1" stroke="#095773" stroke-width="2" stroke-linecap="round" stroke-linejoin="round" points="5.17351724 3 1 3 1 25 25 25 25 3 20.862069 3"></polyline>
                        <polyline id="Stroke-1" stroke="#095773" stroke-width="2" stroke-linecap="round" stroke-linejoin="round" points="9 3 18 3"></polyline>
                        <polyline id="Stroke-1" stroke="#095773" stroke-width="2" stroke-linecap="round" stroke-linejoin="round" points="0 7 25 7"></polyline>
                        <mask id="mask-2" fill="white">
                            <use xlink:href="#path-1"></use>
                        </mask>
                        <g id="Clip-4"></g>
                        <polygon id="Stroke-3" stroke="#095773" stroke-width="2" stroke-linecap="round" stroke-linejoin="round" mask="url(#mask-2)" points="5 5 8 5 8 1 5 1"></polygon>
                        <polygon id="Stroke-5" stroke="#095773" stroke-width="2" stroke-linecap="round" stroke-linejoin="round" mask="url(#mask-2)" points="18 5 21 5 21 1 18 1"></polygon>
                        <path d="M8,3 L17,3" id="Stroke-6" stroke="#095773" stroke-width="2" stroke-linecap="round" stroke-linejoin="round" mask="url(#mask-2)"></path>
                        <path d="M1,8 L25,8" id="Stroke-7" stroke="#095773" stroke-width="2" stroke-linecap="round" stroke-linejoin="round" mask="url(#mask-2)"></path>
                    </g>
                </g>
            </g>
        </g>
    </g>
</svg>
